<?xml version="1.0" encoding="utf-8"?>
<!-- Generator: Adobe Illustrator 22.0.0, SVG Export Plug-In . SVG Version: 6.00 Build 0)  -->
<svg version="1.1" id="Capa_1" xmlns="http://www.w3.org/2000/svg" xmlns:xlink="http://www.w3.org/1999/xlink" x="0px" y="0px"
	 viewBox="0 0 512 512" style="enable-background:new 0 0 512 512;" xml:space="preserve">
<style type="text/css">
	.st0{fill:#FF8800;}
</style>
<g>
	<path class="st0" d="M0,346c0,91.2,74.8,166,166,166c91,0,165-74.5,165-166c0-5.3-0.3-10.6-0.8-15.8c5.2,0.5,10.5,0.8,15.8,0.8
		c91.5,0,166-74,166-165C512,74.8,437.2,0,346,0c-91,0-165,74.5-165,166c0,5.3,0.3,10.5,0.8,15.8c-5.2-0.5-10.4-0.8-15.8-0.8
		C74.5,181,0,255,0,346z M324.2,299.2c-6.9-23.4-18.9-44.6-34.6-62.4c0.3-0.3,0.6-0.6,0.9-0.9c14.1-15.9,34.4-25,55.5-25
		s41.4,9.1,55.5,25c5.5,6.2,15,6.7,21.2,1.2s6.7-15,1.2-21.2c-19.8-22.3-48.2-35-77.9-35s-58.1,12.8-77.9,35
		c-0.1,0.1-0.1,0.2-0.2,0.3c-16.2-12.8-34.9-22.5-55.1-28.5c-1.2-7.2-1.8-14.4-1.8-21.8c0-75,60.6-136,135-136c75,0,136,61,136,136
		c0,74.4-61,135-136,135C338.7,301,331.4,300.4,324.2,299.2z M30,346c0-74.4,61-135,136-135c74.4,0,135,60.6,135,135
		c0,75-60.6,136-135,136C91,482,30,421,30,346z"/>
	<path class="st0" d="M69.3,367.4c-2.8,4-3.5,9.1-1.9,13.7c14.9,41.9,54.5,70,98.6,70s83.7-28.1,98.6-70c1.6-4.6,0.9-9.7-1.9-13.7
		c-2.8-4-7.4-6.4-12.3-6.4h-169C76.6,361,72.1,363.4,69.3,367.4L69.3,367.4z M106.4,391h119.2c-13.9,18.5-35.8,30-59.6,30
		S120.3,409.5,106.4,391z"/>
	<path class="st0" d="M241,316c0-8.3-6.7-15-15-15s-15,6.7-15,15c0,8.3-6.7,15-15,15s-15-6.7-15-15c0-24.8,20.2-45,45-45
		s45,20.2,45,45c0,8.3-6.7,15-15,15S241,324.3,241,316z"/>
	<path class="st0" d="M106,271c24.8,0,45,20.2,45,45c0,8.3-6.7,15-15,15s-15-6.7-15-15c0-8.3-6.7-15-15-15s-15,6.7-15,15
		c0,8.3-6.7,15-15,15s-15-6.7-15-15C61,291.2,81.2,271,106,271z"/>
	<path class="st0" d="M361,121c0-8.3,6.7-15,15-15s15,6.7,15,15c0,8.3,6.7,15,15,15s15-6.7,15-15c0-8.3,6.7-15,15-15s15,6.7,15,15
		c0,24.8-20.2,45-45,45S361,145.8,361,121z"/>
	<path class="st0" d="M286,166c-24.8,0-45-20.2-45-45c0-8.3,6.7-15,15-15s15,6.7,15,15c0,8.3,6.7,15,15,15s15-6.7,15-15
		c0-8.3,6.7-15,15-15s15,6.7,15,15C331,145.8,310.8,166,286,166z"/>
</g>
</svg>
