<?xml version="1.0" encoding="utf-8"?>
<!-- Generator: Adobe Illustrator 22.0.0, SVG Export Plug-In . SVG Version: 6.00 Build 0)  -->
<svg version="1.1" id="Capa_1" xmlns="http://www.w3.org/2000/svg" xmlns:xlink="http://www.w3.org/1999/xlink" x="0px" y="0px"
	 viewBox="0 0 512 512" style="enable-background:new 0 0 512 512;" xml:space="preserve">
<style type="text/css">
	.st0{fill:#FFCD00;}
</style>
<g>
	<circle class="st0" cx="181.2" cy="190.1" r="29.9"/>
	<circle class="st0" cx="330.8" cy="190.1" r="29.9"/>
	<path class="st0" d="M390.7,327.8H121.3c-7.4,0-13.5-6-13.5-13.5c0-7.4,6-13.5,13.5-13.5h269.4c7.4,0,13.5,6,13.5,13.5
		C404.2,321.8,398.2,327.8,390.7,327.8z"/>
</g>
</svg>
