<?xml version="1.0" encoding="utf-8"?>
<!-- Generator: Adobe Illustrator 22.0.0, SVG Export Plug-In . SVG Version: 6.00 Build 0)  -->
<svg version="1.1" id="Layer_1" xmlns="http://www.w3.org/2000/svg" xmlns:xlink="http://www.w3.org/1999/xlink" x="0px" y="0px"
	 viewBox="0 0 72 72" style="enable-background:new 0 0 72 72;" xml:space="preserve">

<g>
	<path class="st0" d="M18.2,20c1.6,0.7,3.2,1.7,4.8,3l-2.6,2.9c-1.3-1-2.6-1.8-3.8-2.3c-1.3-0.5-2.6-0.7-4-0.7
		c-1.8,0-3.3,0.4-4.5,1.3c-1.2,0.8-1.8,2.1-1.8,3.7c0,1,0.2,1.9,0.6,2.5c0.4,0.7,1.1,1.3,2.2,1.9s2.7,1.2,4.7,1.8
		c2.2,0.7,4,1.4,5.4,2.2c1.4,0.8,2.6,1.8,3.5,3.2s1.3,3.1,1.3,5.1s-0.5,3.8-1.5,5.3s-2.4,2.7-4.3,3.6c-1.9,0.9-4.1,1.3-6.6,1.3
		C7,54.7,3,53.3,0,50.3l2.6-2.9c1.4,1.1,2.8,2,4.3,2.6c1.4,0.6,3,0.9,4.8,0.9c2.1,0,3.9-0.5,5.3-1.6s2.1-2.6,2.1-4.6
		c0-1.1-0.2-2.1-0.7-2.8c-0.4-0.8-1.2-1.4-2.2-2c-1.1-0.6-2.6-1.2-4.6-1.8c-3.5-1.1-6.1-2.4-7.8-3.9S1.4,30.6,1.4,28
		c0-1.7,0.5-3.3,1.4-4.7s2.2-2.4,3.9-3.2c1.7-0.8,3.5-1.2,5.7-1.2C14.6,19,16.6,19.3,18.2,20z"/>
	<path class="st0" d="M48.3,27.7l-9,26.4h-5.6l-9.1-26.4h5l7,22.3l6.9-22.3H48.3L48.3,27.7z"/>
	<path class="st0" d="M70.3,50.4c0.4,0.5,0.9,0.9,1.7,1.2l-1.1,3.2c-1.4-0.2-2.5-0.6-3.3-1.2c-0.8-0.6-1.5-1.5-1.9-2.8
		c-1.8,2.6-4.4,4-7.9,4c-2.6,0-4.7-0.7-6.2-2.2s-2.3-3.4-2.3-5.8c0-2.8,1-5,3-6.5s4.9-2.3,8.6-2.3H65v-2c0-1.9-0.5-3.2-1.4-4
		c-0.9-0.8-2.3-1.2-4.2-1.2s-4.3,0.5-7.1,1.4l-1.2-3.4c3.3-1.2,6.3-1.8,9.1-1.8c3.1,0,5.4,0.8,7,2.3c1.5,1.5,2.3,3.7,2.3,6.5V48
		C69.8,49.1,70,49.9,70.3,50.4z M65.2,47.2v-6.1h-3.5c-4.9,0-7.3,1.8-7.3,5.4c0,1.6,0.4,2.8,1.2,3.6c0.8,0.8,1.9,1.2,3.4,1.2
		C61.6,51.3,63.7,49.9,65.2,47.2z"/>
	<rect x="53.4" y="17.2" class="st0" width="13.7" height="3.5"/>
</g>
</svg>
