<?xml version="1.0" encoding="utf-8"?>
<!-- Generator: Adobe Illustrator 22.0.0, SVG Export Plug-In . SVG Version: 6.00 Build 0)  -->
<svg version="1.1" id="Layer_1" xmlns="http://www.w3.org/2000/svg" xmlns:xlink="http://www.w3.org/1999/xlink" x="0px" y="0px"
	 viewBox="0 0 512 512" style="fill: #00c36D;" xml:space="preserve">

<g>
	<g id="surface1_1_">
		<path class="st0" d="M473.5,138.9v-0.4c-0.2-4.9-0.4-10.1-0.5-15.9c-0.4-28.2-22.9-51.6-51.1-53.2C363.1,66.2,317.5,47,278.6,9
			l-0.3-0.3c-12.7-11.6-31.8-11.6-44.5,0L233.4,9C194.5,47,149,66.2,90.1,69.5C61.9,71,39.4,94.4,39,122.6c-0.1,5.8-0.2,11-0.5,15.9
			v0.9c-1.1,60-2.6,134.7,22.4,202.5c13.7,37.3,34.6,69.7,61.9,96.3c31.1,30.3,71.8,54.4,121,71.6c1.6,0.6,3.3,1,5,1.4
			c2.4,0.5,4.8,0.7,7.2,0.7s4.8-0.2,7.2-0.7c1.7-0.3,3.4-0.8,5-1.4c49.2-17.2,89.9-41.3,120.9-71.6c27.3-26.7,48.1-59.1,61.9-96.4
			C476,273.9,474.6,199.1,473.5,138.9z M256,383.6c-70.4,0-127.6-57.2-127.6-127.6S185.6,128.4,256,128.4S383.6,185.6,383.6,256
			S326.4,383.6,256,383.6z"/>
	</g>
	<path class="st0" d="M339.2,219.5L241,317.7c-2.9,2.9-6.8,4.4-10.6,4.4s-7.7-1.5-10.6-4.4l-55-55c-5.9-5.9-5.9-15.4,0-21.2
		c5.9-5.9,15.4-5.9,21.2,0l44.4,44.4l87.6-87.5c5.9-5.9,15.4-5.9,21.2,0C345.1,204.2,345.1,213.7,339.2,219.5z"/>
</g>
</svg>
